<define-tag pagetitle>DLA-1212-1 otrs2</define-tag>
<define-tag report_date>2017-12-19</define-tag>
<define-tag secrefs>CVE-2017-15864 CVE-2017-16664 CVE-2017-16854 CVE-2017-16921</define-tag>
<define-tag packages>otrs2</define-tag>
<define-tag isvulnerable>yes</define-tag>
<define-tag fixed>yes</define-tag>
<define-tag fixed-section>no</define-tag>

#use wml::debian::security

