<define-tag pagetitle>DLA-2165-1 apng2gif</define-tag>
<define-tag report_date>2020-3-31</define-tag>
<define-tag secrefs>CVE-2017-6960</define-tag>
<define-tag packages>apng2gif</define-tag>
<define-tag isvulnerable>yes</define-tag>
<define-tag fixed>yes</define-tag>
<define-tag fixed-section>no</define-tag>

#use wml::debian::security

