<define-tag pagetitle>DLA-145-2 php5</define-tag>
<define-tag report_date>2015-2-02</define-tag>
<define-tag packages>php5</define-tag>
<define-tag isvulnerable>yes</define-tag>
<define-tag fixed>yes</define-tag>
<define-tag fixed-section>no</define-tag>

#use wml::debian::security

