<define-tag pagetitle>DLA-608-1 mailman</define-tag>
<define-tag report_date>2016-9-2</define-tag>
<define-tag secrefs>CVE-2016-6893 Bug#835970</define-tag>
<define-tag packages>mailman</define-tag>
<define-tag isvulnerable>yes</define-tag>
<define-tag fixed>yes</define-tag>
<define-tag fixed-section>no</define-tag>

#use wml::debian::security

