<define-tag pagetitle>DLA-742-1 chrony</define-tag>
<define-tag report_date>2016-12-13</define-tag>
<define-tag secrefs>CVE-2016-1567 Bug#812923 Bug#568492</define-tag>
<define-tag packages>chrony</define-tag>
<define-tag isvulnerable>yes</define-tag>
<define-tag fixed>yes</define-tag>
<define-tag fixed-section>no</define-tag>

#use wml::debian::security

